# File exported by Houdini 19.0.622 (www.sidefx.com)
# 32 points
# 96 vertices
# 20 primitives
# Bounds: [9.35000038, -0.0199999809, 4.81428576] to [10.3500004, 3.27999997, 6.61428595]
g 
v 9.35000038 1.70000005 6.44428587
v 9.35000038 1.79999995 6.41749096
v 9.35000038 1.87320507 6.34428596
v 9.35000038 1.89999998 6.24428558
v 9.35000038 1.87320507 6.14428568
v 9.35000038 1.79999995 6.07108068
v 9.35000038 1.70000005 6.04428577
v 9.35000038 1.5999999 6.07108068
v 9.35000038 1.52679491 6.14428568
v 9.35000038 1.5 6.24428558
v 9.35000038 1.52679491 6.34428596
v 9.35000038 1.60000002 6.41749096
v 10.3500004 1.70000005 6.44428587
v 10.3500004 1.79999995 6.41749096
v 10.3500004 1.87320507 6.34428596
v 10.3500004 1.89999998 6.24428558
v 10.3500004 1.87320507 6.14428568
v 10.3500004 1.79999995 6.07108068
v 10.3500004 1.70000005 6.04428577
v 10.3500004 1.5999999 6.07108068
v 10.3500004 1.52679491 6.14428568
v 10.3500004 1.5 6.24428558
v 10.3500004 1.52679491 6.34428596
v 10.3500004 1.60000002 6.41749096
v 9.85000038 -0.0199999809 6.61428595
v 9.85000038 -0.0199999809 4.81428576
v 9.85000038 3.27999997 6.61428595
v 9.85000038 3.27999997 4.81428576
v 10.3500004 -0.0199999809 4.81428576
v 10.3500004 -0.0199999809 6.61428595
v 10.3500004 3.27999997 4.81428576
v 10.3500004 3.27999997 6.61428595
g doors
f 12 1 2 3 4 5 6 7 8 9 10 11
f 13 24 23 22 21 20 19 18 17 16 15 14
f 1 13 14 2
f 2 14 15 3
f 3 15 16 4
f 4 16 17 5
f 5 17 18 6
f 6 18 19 7
f 7 19 20 8
f 8 20 21 9
f 9 21 22 10
f 10 22 23 11
f 11 23 24 12
f 12 24 13 1
f 25 27 28 26
f 29 31 32 30
f 31 28 27 32
f 30 25 26 29
f 30 32 27 25
f 26 28 31 29
