# File exported by Houdini 19.0.622 (www.sidefx.com)
# 1032 points
# 4112 vertices
# 1028 primitives
# Bounds: [-10, -0.299999952, -10] to [4.30714321, 5.30000019, 7.16428566]
g 
v -9 -0.299999952 4.26428604
v -9 -0.299999952 4.554286
v -9 -0.299999952 4.84428596
v -9 -0.299999952 5.13428593
v -9 -0.299999952 5.42428589
v -9 -0.299999952 5.71428585
v -9 -0.299999952 6.00428581
v -9 -0.299999952 6.29428577
v -9 -0.299999952 6.58428574
v -9 -0.299999952 6.8742857
v -9 -0.299999952 7.16428566
v -9 0.0733332634 4.26428604
v -9 0.0733332634 4.554286
v -9 0.0733332634 4.84428596
v -9 0.0733332634 5.13428593
v -9 0.0733332634 5.42428589
v -9 0.0733332634 5.71428585
v -9 0.0733332634 6.00428581
v -9 0.0733332634 6.29428577
v -9 0.0733332634 6.58428574
v -9 0.0733332634 6.8742857
v -9 0.0733332634 7.16428566
v -9 0.446666718 4.26428604
v -9 0.446666718 4.554286
v -9 0.446666718 4.84428596
v -9 0.446666718 5.13428593
v -9 0.446666718 5.42428589
v -9 0.446666718 5.71428585
v -9 0.446666718 6.00428581
v -9 0.446666718 6.29428577
v -9 0.446666718 6.58428574
v -9 0.446666718 6.8742857
v -9 0.446666718 7.16428566
v -9 0.820000172 4.26428604
v -9 0.820000172 4.554286
v -9 0.820000172 4.84428596
v -9 0.820000172 5.13428593
v -9 0.820000172 5.42428589
v -9 0.820000172 5.71428585
v -9 0.820000172 6.00428581
v -9 0.820000172 6.29428577
v -9 0.820000172 6.58428574
v -9 0.820000172 6.8742857
v -9 0.820000172 7.16428566
v -9 1.19333339 4.26428604
v -9 1.19333339 4.554286
v -9 1.19333339 5.13428593
v -9 1.19333339 5.42428589
v -9 1.19333339 6.00428581
v -9 1.19333339 6.29428577
v -9 1.19333339 6.8742857
v -9 1.19333339 7.16428566
v -9 1.56666672 4.26428604
v -9 1.56666672 4.554286
v -9 1.56666672 4.84428596
v -9 1.56666672 5.13428593
v -9 1.56666672 5.42428589
v -9 1.56666672 5.71428585
v -9 1.56666672 6.00428581
v -9 1.56666672 6.29428577
v -9 1.56666672 6.58428574
v -9 1.56666672 6.8742857
v -9 1.56666672 7.16428566
v -9 1.9400003 4.26428604
v -9 1.9400003 4.554286
v -9 1.9400003 4.84428596
v -9 1.9400003 5.13428593
v -9 1.9400003 5.42428589
v -9 1.9400003 5.71428585
v -9 1.9400003 6.00428581
v -9 1.9400003 6.29428577
v -9 1.9400003 6.58428574
v -9 1.9400003 6.8742857
v -9 1.9400003 7.16428566
v -9 2.31333351 4.26428604
v -9 2.31333351 4.554286
v -9 2.31333351 5.13428593
v -9 2.31333351 5.42428589
v -9 2.31333351 6.00428581
v -9 2.31333351 6.29428577
v -9 2.31333351 6.8742857
v -9 2.31333351 7.16428566
v -9 2.68666673 4.26428604
v -9 2.68666673 4.554286
v -9 2.68666673 4.84428596
v -9 2.68666673 5.13428593
v -9 2.68666673 5.42428589
v -9 2.68666673 5.71428585
v -9 2.68666673 6.00428581
v -9 2.68666673 6.29428577
v -9 2.68666673 6.58428574
v -9 2.68666673 6.8742857
v -9 2.68666673 7.16428566
v -9 3.06000018 4.26428604
v -9 3.06000018 4.554286
v -9 3.06000018 4.84428596
v -9 3.06000018 5.13428593
v -9 3.06000018 5.42428589
v -9 3.06000018 5.71428585
v -9 3.06000018 6.00428581
v -9 3.06000018 6.29428577
v -9 3.06000018 6.58428574
v -9 3.06000018 6.8742857
v -9 3.06000018 7.16428566
v -9 3.4333334 4.26428604
v -9 3.4333334 4.554286
v -9 3.4333334 5.13428593
v -9 3.4333334 5.42428589
v -9 3.4333334 6.00428581
v -9 3.4333334 6.29428577
v -9 3.4333334 6.8742857
v -9 3.4333334 7.16428566
v -9 3.80666685 4.26428604
v -9 3.80666685 4.554286
v -9 3.80666685 4.84428596
v -9 3.80666685 5.13428593
v -9 3.80666685 5.42428589
v -9 3.80666685 5.71428585
v -9 3.80666685 6.00428581
v -9 3.80666685 6.29428577
v -9 3.80666685 6.58428574
v -9 3.80666685 6.8742857
v -9 3.80666685 7.16428566
v -9 4.18000031 4.26428604
v -9 4.18000031 4.554286
v -9 4.18000031 4.84428596
v -9 4.18000031 5.13428593
v -9 4.18000031 5.42428589
v -9 4.18000031 5.71428585
v -9 4.18000031 6.00428581
v -9 4.18000031 6.29428577
v -9 4.18000031 6.58428574
v -9 4.18000031 6.8742857
v -9 4.18000031 7.16428566
v -9 4.55333376 4.26428604
v -9 4.55333376 4.554286
v -9 4.55333376 5.13428593
v -9 4.55333376 5.42428589
v -9 4.55333376 6.00428581
v -9 4.55333376 6.29428577
v -9 4.55333376 6.8742857
v -9 4.55333376 7.16428566
v -9 4.92666721 4.26428604
v -9 4.92666721 4.554286
v -9 4.92666721 4.84428596
v -9 4.92666721 5.13428593
v -9 4.92666721 5.42428589
v -9 4.92666721 5.71428585
v -9 4.92666721 6.00428581
v -9 4.92666721 6.29428577
v -9 4.92666721 6.58428574
v -9 4.92666721 6.8742857
v -9 4.92666721 7.16428566
v -9 5.30000019 4.26428604
v -9 5.30000019 4.554286
v -9 5.30000019 4.84428596
v -9 5.30000019 5.13428593
v -9 5.30000019 5.42428589
v -9 5.30000019 5.71428585
v -9 5.30000019 6.00428581
v -9 5.30000019 6.29428577
v -9 5.30000019 6.58428574
v -9 5.30000019 6.8742857
v -9 5.30000019 7.16428566
v -10 -0.299999952 7.16428566
v -10 -0.299999952 6.8742857
v -10 -0.299999952 6.58428574
v -10 -0.299999952 6.29428577
v -10 -0.299999952 6.00428581
v -10 -0.299999952 5.71428585
v -10 -0.299999952 5.42428589
v -10 -0.299999952 5.13428593
v -10 -0.299999952 4.84428596
v -10 -0.299999952 4.554286
v -10 -0.299999952 4.26428604
v -10 0.0733332634 7.16428566
v -10 0.0733332634 6.8742857
v -10 0.0733332634 6.58428574
v -10 0.0733332634 6.29428577
v -10 0.0733332634 6.00428581
v -10 0.0733332634 5.71428585
v -10 0.0733332634 5.42428589
v -10 0.0733332634 5.13428593
v -10 0.0733332634 4.84428596
v -10 0.0733332634 4.554286
v -10 0.0733332634 4.26428604
v -10 0.446666718 7.16428566
v -10 0.446666718 6.8742857
v -10 0.446666718 6.58428574
v -10 0.446666718 6.29428577
v -10 0.446666718 6.00428581
v -10 0.446666718 5.71428585
v -10 0.446666718 5.42428589
v -10 0.446666718 5.13428593
v -10 0.446666718 4.84428596
v -10 0.446666718 4.554286
v -10 0.446666718 4.26428604
v -10 0.820000172 7.16428566
v -10 0.820000172 6.8742857
v -10 0.820000172 6.58428574
v -10 0.820000172 6.29428577
v -10 0.820000172 6.00428581
v -10 0.820000172 5.71428585
v -10 0.820000172 5.42428589
v -10 0.820000172 5.13428593
v -10 0.820000172 4.84428596
v -10 0.820000172 4.554286
v -10 0.820000172 4.26428604
v -10 1.19333339 7.16428566
v -10 1.19333339 6.8742857
v -10 1.19333339 6.58428574
v -10 1.19333339 6.29428577
v -10 1.19333339 6.00428581
v -10 1.19333339 5.71428585
v -10 1.19333339 5.42428589
v -10 1.19333339 5.13428593
v -10 1.19333339 4.84428596
v -10 1.19333339 4.554286
v -10 1.19333339 4.26428604
v -10 1.56666672 7.16428566
v -10 1.56666672 6.8742857
v -10 1.56666672 6.58428574
v -10 1.56666672 6.29428577
v -10 1.56666672 6.00428581
v -10 1.56666672 5.71428585
v -10 1.56666672 5.42428589
v -10 1.56666672 5.13428593
v -10 1.56666672 4.84428596
v -10 1.56666672 4.554286
v -10 1.56666672 4.26428604
v -10 1.9400003 7.16428566
v -10 1.9400003 6.8742857
v -10 1.9400003 6.58428574
v -10 1.9400003 6.29428577
v -10 1.9400003 6.00428581
v -10 1.9400003 5.71428585
v -10 1.9400003 5.42428589
v -10 1.9400003 5.13428593
v -10 1.9400003 4.84428596
v -10 1.9400003 4.554286
v -10 1.9400003 4.26428604
v -10 2.31333351 7.16428566
v -10 2.31333351 6.8742857
v -10 2.31333351 6.58428574
v -10 2.31333351 6.29428577
v -10 2.31333351 6.00428581
v -10 2.31333351 5.71428585
v -10 2.31333351 5.42428589
v -10 2.31333351 5.13428593
v -10 2.31333351 4.84428596
v -10 2.31333351 4.554286
v -10 2.31333351 4.26428604
v -10 2.68666673 7.16428566
v -10 2.68666673 6.8742857
v -10 2.68666673 6.58428574
v -10 2.68666673 6.29428577
v -10 2.68666673 6.00428581
v -10 2.68666673 5.71428585
v -10 2.68666673 5.42428589
v -10 2.68666673 5.13428593
v -10 2.68666673 4.84428596
v -10 2.68666673 4.554286
v -10 2.68666673 4.26428604
v -10 3.06000018 7.16428566
v -10 3.06000018 6.8742857
v -10 3.06000018 6.58428574
v -10 3.06000018 6.29428577
v -10 3.06000018 6.00428581
v -10 3.06000018 5.71428585
v -10 3.06000018 5.42428589
v -10 3.06000018 5.13428593
v -10 3.06000018 4.84428596
v -10 3.06000018 4.554286
v -10 3.06000018 4.26428604
v -10 3.4333334 7.16428566
v -10 3.4333334 6.8742857
v -10 3.4333334 6.58428574
v -10 3.4333334 6.29428577
v -10 3.4333334 6.00428581
v -10 3.4333334 5.71428585
v -10 3.4333334 5.42428589
v -10 3.4333334 5.13428593
v -10 3.4333334 4.84428596
v -10 3.4333334 4.554286
v -10 3.4333334 4.26428604
v -10 3.80666685 7.16428566
v -10 3.80666685 6.8742857
v -10 3.80666685 6.58428574
v -10 3.80666685 6.29428577
v -10 3.80666685 6.00428581
v -10 3.80666685 5.71428585
v -10 3.80666685 5.42428589
v -10 3.80666685 5.13428593
v -10 3.80666685 4.84428596
v -10 3.80666685 4.554286
v -10 3.80666685 4.26428604
v -10 4.18000031 7.16428566
v -10 4.18000031 6.8742857
v -10 4.18000031 6.58428574
v -10 4.18000031 6.29428577
v -10 4.18000031 6.00428581
v -10 4.18000031 5.71428585
v -10 4.18000031 5.42428589
v -10 4.18000031 5.13428593
v -10 4.18000031 4.84428596
v -10 4.18000031 4.554286
v -10 4.18000031 4.26428604
v -10 4.55333376 7.16428566
v -10 4.55333376 6.8742857
v -10 4.55333376 6.58428574
v -10 4.55333376 6.29428577
v -10 4.55333376 6.00428581
v -10 4.55333376 5.71428585
v -10 4.55333376 5.42428589
v -10 4.55333376 5.13428593
v -10 4.55333376 4.84428596
v -10 4.55333376 4.554286
v -10 4.55333376 4.26428604
v -10 4.92666721 7.16428566
v -10 4.92666721 6.8742857
v -10 4.92666721 6.58428574
v -10 4.92666721 6.29428577
v -10 4.92666721 6.00428581
v -10 4.92666721 5.71428585
v -10 4.92666721 5.42428589
v -10 4.92666721 5.13428593
v -10 4.92666721 4.84428596
v -10 4.92666721 4.554286
v -10 4.92666721 4.26428604
v -10 5.30000019 7.16428566
v -10 5.30000019 6.8742857
v -10 5.30000019 6.58428574
v -10 5.30000019 6.29428577
v -10 5.30000019 6.00428581
v -10 5.30000019 5.71428585
v -10 5.30000019 5.42428589
v -10 5.30000019 5.13428593
v -10 5.30000019 4.84428596
v -10 5.30000019 4.554286
v -10 5.30000019 4.26428604
v -9.5 5.30000019 7.16428566
v -9.5 5.30000019 6.8742857
v -9.5 5.30000019 6.58428574
v -9.5 5.30000019 6.29428577
v -9.5 5.30000019 6.00428581
v -9.5 5.30000019 5.71428585
v -9.5 5.30000019 5.42428589
v -9.5 5.30000019 5.13428593
v -9.5 5.30000019 4.84428596
v -9.5 5.30000019 4.554286
v -9.5 5.30000019 4.26428604
v -9.5 -0.299999952 4.26428604
v -9.5 -0.299999952 4.554286
v -9.5 -0.299999952 4.84428596
v -9.5 -0.299999952 5.13428593
v -9.5 -0.299999952 5.42428589
v -9.5 -0.299999952 5.71428585
v -9.5 -0.299999952 6.00428581
v -9.5 -0.299999952 6.29428577
v -9.5 -0.299999952 6.58428574
v -9.5 -0.299999952 6.8742857
v -9.5 -0.299999952 7.16428566
v -9.5 0.0733332634 4.26428604
v -9.5 0.446666718 4.26428604
v -9.5 0.820000172 4.26428604
v -9.5 1.19333339 4.26428604
v -9.5 1.56666672 4.26428604
v -9.5 1.9400003 4.26428604
v -9.5 2.31333351 4.26428604
v -9.5 2.68666673 4.26428604
v -9.5 3.06000018 4.26428604
v -9.5 3.4333334 4.26428604
v -9.5 3.80666685 4.26428604
v -9.5 4.18000031 4.26428604
v -9.5 4.55333376 4.26428604
v -9.5 4.92666721 4.26428604
v -9.5 0.0733332634 7.16428566
v -9.5 0.446666718 7.16428566
v -9.5 0.820000172 7.16428566
v -9.5 1.19333339 7.16428566
v -9.5 1.56666672 7.16428566
v -9.5 1.9400003 7.16428566
v -9.5 2.31333351 7.16428566
v -9.5 2.68666673 7.16428566
v -9.5 3.06000018 7.16428566
v -9.5 3.4333334 7.16428566
v -9.5 3.80666685 7.16428566
v -9.5 4.18000031 7.16428566
v -9.5 4.55333376 7.16428566
v -9.5 4.92666721 7.16428566
v -9.59000015 0.0303332806 4.51128578
v -9.59000015 0.0303332806 4.84428596
v -9.59000015 0.4896667 4.84428596
v -9.59000015 0.4896667 4.51128578
v -9.59000015 0.0303332806 5.17728567
v -9.59000015 0.4896667 5.17728567
v -9.59000015 0.0303332806 5.38128567
v -9.59000015 0.0303332806 5.71428585
v -9.59000015 0.4896667 5.71428585
v -9.59000015 0.4896667 5.38128567
v -9.59000015 0.0303332806 6.04728603
v -9.59000015 0.4896667 6.04728603
v -9.59000015 0.0303332806 6.25128603
v -9.59000015 0.0303332806 6.58428574
v -9.59000015 0.4896667 6.58428574
v -9.59000015 0.4896667 6.25128603
v -9.59000015 0.0303332806 6.91728592
v -9.59000015 0.4896667 6.91728592
v -9.59000015 0.777000189 4.51128578
v -9.59000015 0.777000189 4.84428596
v -9.59000015 1.19333339 4.84428596
v -9.59000015 1.19333339 4.51128578
v -9.59000015 0.777000189 5.17728567
v -9.59000015 1.19333339 5.17728567
v -9.59000015 1.60966671 4.84428596
v -9.59000015 1.60966671 4.51128578
v -9.59000015 1.60966671 5.17728567
v -9.59000015 0.777000189 5.38128567
v -9.59000015 0.777000189 5.71428585
v -9.59000015 1.19333339 5.71428585
v -9.59000015 1.19333339 5.38128567
v -9.59000015 0.777000189 6.04728603
v -9.59000015 1.19333339 6.04728603
v -9.59000015 1.60966671 5.71428585
v -9.59000015 1.60966671 5.38128567
v -9.59000015 1.60966671 6.04728603
v -9.59000015 0.777000189 6.25128603
v -9.59000015 0.777000189 6.58428574
v -9.59000015 1.19333339 6.58428574
v -9.59000015 1.19333339 6.25128603
v -9.59000015 0.777000189 6.91728592
v -9.59000015 1.19333339 6.91728592
v -9.59000015 1.60966671 6.58428574
v -9.59000015 1.60966671 6.25128603
v -9.59000015 1.60966671 6.91728592
v -9.59000015 1.89700031 4.51128578
v -9.59000015 1.89700031 4.84428596
v -9.59000015 2.31333351 4.84428596
v -9.59000015 2.31333351 4.51128578
v -9.59000015 1.89700031 5.17728567
v -9.59000015 2.31333351 5.17728567
v -9.59000015 2.72966671 4.84428596
v -9.59000015 2.72966671 4.51128578
v -9.59000015 2.72966671 5.17728567
v -9.59000015 1.89700031 5.38128567
v -9.59000015 1.89700031 5.71428585
v -9.59000015 2.31333351 5.71428585
v -9.59000015 2.31333351 5.38128567
v -9.59000015 1.89700031 6.04728603
v -9.59000015 2.31333351 6.04728603
v -9.59000015 2.72966671 5.71428585
v -9.59000015 2.72966671 5.38128567
v -9.59000015 2.72966671 6.04728603
v -9.59000015 1.89700031 6.25128603
v -9.59000015 1.89700031 6.58428574
v -9.59000015 2.31333351 6.58428574
v -9.59000015 2.31333351 6.25128603
v -9.59000015 1.89700031 6.91728592
v -9.59000015 2.31333351 6.91728592
v -9.59000015 2.72966671 6.58428574
v -9.59000015 2.72966671 6.25128603
v -9.59000015 2.72966671 6.91728592
v -9.59000015 3.0170002 4.51128578
v -9.59000015 3.0170002 4.84428596
v -9.59000015 3.4333334 4.84428596
v -9.59000015 3.4333334 4.51128578
v -9.59000015 3.0170002 5.17728567
v -9.59000015 3.4333334 5.17728567
v -9.59000015 3.8496666 4.84428596
v -9.59000015 3.8496666 4.51128578
v -9.59000015 3.8496666 5.17728567
v -9.59000015 3.0170002 5.38128567
v -9.59000015 3.0170002 5.71428585
v -9.59000015 3.4333334 5.71428585
v -9.59000015 3.4333334 5.38128567
v -9.59000015 3.0170002 6.04728603
v -9.59000015 3.4333334 6.04728603
v -9.59000015 3.8496666 5.71428585
v -9.59000015 3.8496666 5.38128567
v -9.59000015 3.8496666 6.04728603
v -9.59000015 3.0170002 6.25128603
v -9.59000015 3.0170002 6.58428574
v -9.59000015 3.4333334 6.58428574
v -9.59000015 3.4333334 6.25128603
v -9.59000015 3.0170002 6.91728592
v -9.59000015 3.4333334 6.91728592
v -9.59000015 3.8496666 6.58428574
v -9.59000015 3.8496666 6.25128603
v -9.59000015 3.8496666 6.91728592
v -9.59000015 4.13700056 4.51128578
v -9.59000015 4.13700056 4.84428596
v -9.59000015 4.55333376 4.84428596
v -9.59000015 4.55333376 4.51128578
v -9.59000015 4.13700056 5.17728567
v -9.59000015 4.55333376 5.17728567
v -9.59000015 4.96966696 4.84428596
v -9.59000015 4.96966696 4.51128578
v -9.59000015 4.96966696 5.17728567
v -9.59000015 4.13700056 5.38128567
v -9.59000015 4.13700056 5.71428585
v -9.59000015 4.55333376 5.71428585
v -9.59000015 4.55333376 5.38128567
v -9.59000015 4.13700056 6.04728603
v -9.59000015 4.55333376 6.04728603
v -9.59000015 4.96966696 5.71428585
v -9.59000015 4.96966696 5.38128567
v -9.59000015 4.96966696 6.04728603
v -9.59000015 4.13700056 6.25128603
v -9.59000015 4.13700056 6.58428574
v -9.59000015 4.55333376 6.58428574
v -9.59000015 4.55333376 6.25128603
v -9.59000015 4.13700056 6.91728592
v -9.59000015 4.55333376 6.91728592
v -9.59000015 4.96966696 6.58428574
v -9.59000015 4.96966696 6.25128603
v -9.59000015 4.96966696 6.91728592
v 4.30714321 -0.299999952 -9
v 4.01714325 -0.299999952 -9
v 3.72714353 -0.299999952 -9
v 3.43714333 -0.299999952 -9
v 3.14714336 -0.299999952 -9
v 2.8571434 -0.299999952 -9
v 2.56714344 -0.299999952 -9
v 2.27714348 -0.299999952 -9
v 1.98714328 -0.299999952 -9
v 1.69714332 -0.299999952 -9
v 1.40714335 -0.299999952 -9
v 4.30714321 0.0733332634 -9
v 4.01714325 0.0733332634 -9
v 3.72714353 0.0733332634 -9
v 3.43714333 0.0733332634 -9
v 3.14714336 0.0733332634 -9
v 2.8571434 0.0733332634 -9
v 2.56714344 0.0733332634 -9
v 2.27714348 0.0733332634 -9
v 1.98714328 0.0733332634 -9
v 1.69714332 0.0733332634 -9
v 1.40714335 0.0733332634 -9
v 4.30714321 0.446666718 -9
v 4.01714325 0.446666718 -9
v 3.72714353 0.446666718 -9
v 3.43714333 0.446666718 -9
v 3.14714336 0.446666718 -9
v 2.8571434 0.446666718 -9
v 2.56714344 0.446666718 -9
v 2.27714348 0.446666718 -9
v 1.98714328 0.446666718 -9
v 1.69714332 0.446666718 -9
v 1.40714335 0.446666718 -9
v 4.30714321 0.820000172 -9
v 4.01714325 0.820000172 -9
v 3.72714353 0.820000172 -9
v 3.43714333 0.820000172 -9
v 3.14714336 0.820000172 -9
v 2.8571434 0.820000172 -9
v 2.56714344 0.820000172 -9
v 2.27714348 0.820000172 -9
v 1.98714328 0.820000172 -9
v 1.69714332 0.820000172 -9
v 1.40714335 0.820000172 -9
v 4.30714321 1.19333339 -9
v 4.01714325 1.19333339 -9
v 3.43714333 1.19333339 -9
v 3.14714336 1.19333339 -9
v 2.56714344 1.19333339 -9
v 2.27714348 1.19333339 -9
v 1.69714332 1.19333339 -9
v 1.40714335 1.19333339 -9
v 4.30714321 1.56666672 -9
v 4.01714325 1.56666672 -9
v 3.72714353 1.56666672 -9
v 3.43714333 1.56666672 -9
v 3.14714336 1.56666672 -9
v 2.8571434 1.56666672 -9
v 2.56714344 1.56666672 -9
v 2.27714348 1.56666672 -9
v 1.98714328 1.56666672 -9
v 1.69714332 1.56666672 -9
v 1.40714335 1.56666672 -9
v 4.30714321 1.9400003 -9
v 4.01714325 1.9400003 -9
v 3.72714353 1.9400003 -9
v 3.43714333 1.9400003 -9
v 3.14714336 1.9400003 -9
v 2.8571434 1.9400003 -9
v 2.56714344 1.9400003 -9
v 2.27714348 1.9400003 -9
v 1.98714328 1.9400003 -9
v 1.69714332 1.9400003 -9
v 1.40714335 1.9400003 -9
v 4.30714321 2.31333351 -9
v 4.01714325 2.31333351 -9
v 3.43714333 2.31333351 -9
v 3.14714336 2.31333351 -9
v 2.56714344 2.31333351 -9
v 2.27714348 2.31333351 -9
v 1.69714332 2.31333351 -9
v 1.40714335 2.31333351 -9
v 4.30714321 2.68666673 -9
v 4.01714325 2.68666673 -9
v 3.72714353 2.68666673 -9
v 3.43714333 2.68666673 -9
v 3.14714336 2.68666673 -9
v 2.8571434 2.68666673 -9
v 2.56714344 2.68666673 -9
v 2.27714348 2.68666673 -9
v 1.98714328 2.68666673 -9
v 1.69714332 2.68666673 -9
v 1.40714335 2.68666673 -9
v 4.30714321 3.06000018 -9
v 4.01714325 3.06000018 -9
v 3.72714353 3.06000018 -9
v 3.43714333 3.06000018 -9
v 3.14714336 3.06000018 -9
v 2.8571434 3.06000018 -9
v 2.56714344 3.06000018 -9
v 2.27714348 3.06000018 -9
v 1.98714328 3.06000018 -9
v 1.69714332 3.06000018 -9
v 1.40714335 3.06000018 -9
v 4.30714321 3.4333334 -9
v 4.01714325 3.4333334 -9
v 3.43714333 3.4333334 -9
v 3.14714336 3.4333334 -9
v 2.56714344 3.4333334 -9
v 2.27714348 3.4333334 -9
v 1.69714332 3.4333334 -9
v 1.40714335 3.4333334 -9
v 4.30714321 3.80666685 -9
v 4.01714325 3.80666685 -9
v 3.72714353 3.80666685 -9
v 3.43714333 3.80666685 -9
v 3.14714336 3.80666685 -9
v 2.8571434 3.80666685 -9
v 2.56714344 3.80666685 -9
v 2.27714348 3.80666685 -9
v 1.98714328 3.80666685 -9
v 1.69714332 3.80666685 -9
v 1.40714335 3.80666685 -9
v 4.30714321 4.18000031 -9
v 4.01714325 4.18000031 -9
v 3.72714353 4.18000031 -9
v 3.43714333 4.18000031 -9
v 3.14714336 4.18000031 -9
v 2.8571434 4.18000031 -9
v 2.56714344 4.18000031 -9
v 2.27714348 4.18000031 -9
v 1.98714328 4.18000031 -9
v 1.69714332 4.18000031 -9
v 1.40714335 4.18000031 -9
v 4.30714321 4.55333376 -9
v 4.01714325 4.55333376 -9
v 3.43714333 4.55333376 -9
v 3.14714336 4.55333376 -9
v 2.56714344 4.55333376 -9
v 2.27714348 4.55333376 -9
v 1.69714332 4.55333376 -9
v 1.40714335 4.55333376 -9
v 4.30714321 4.92666721 -9
v 4.01714325 4.92666721 -9
v 3.72714353 4.92666721 -9
v 3.43714333 4.92666721 -9
v 3.14714336 4.92666721 -9
v 2.8571434 4.92666721 -9
v 2.56714344 4.92666721 -9
v 2.27714348 4.92666721 -9
v 1.98714328 4.92666721 -9
v 1.69714332 4.92666721 -9
v 1.40714335 4.92666721 -9
v 4.30714321 5.30000019 -9
v 4.01714325 5.30000019 -9
v 3.72714353 5.30000019 -9
v 3.43714333 5.30000019 -9
v 3.14714336 5.30000019 -9
v 2.8571434 5.30000019 -9
v 2.56714344 5.30000019 -9
v 2.27714348 5.30000019 -9
v 1.98714328 5.30000019 -9
v 1.69714332 5.30000019 -9
v 1.40714335 5.30000019 -9
v 1.40714335 -0.299999952 -10
v 1.69714332 -0.299999952 -10
v 1.98714328 -0.299999952 -10
v 2.27714348 -0.299999952 -10
v 2.56714344 -0.299999952 -10
v 2.8571434 -0.299999952 -10
v 3.14714336 -0.299999952 -10
v 3.43714333 -0.299999952 -10
v 3.72714353 -0.299999952 -10
v 4.01714325 -0.299999952 -10
v 4.30714321 -0.299999952 -10
v 1.40714335 0.0733332634 -10
v 1.69714332 0.0733332634 -10
v 1.98714328 0.0733332634 -10
v 2.27714348 0.0733332634 -10
v 2.56714344 0.0733332634 -10
v 2.8571434 0.0733332634 -10
v 3.14714336 0.0733332634 -10
v 3.43714333 0.0733332634 -10
v 3.72714353 0.0733332634 -10
v 4.01714325 0.0733332634 -10
v 4.30714321 0.0733332634 -10
v 1.40714335 0.446666718 -10
v 1.69714332 0.446666718 -10
v 1.98714328 0.446666718 -10
v 2.27714348 0.446666718 -10
v 2.56714344 0.446666718 -10
v 2.8571434 0.446666718 -10
v 3.14714336 0.446666718 -10
v 3.43714333 0.446666718 -10
v 3.72714353 0.446666718 -10
v 4.01714325 0.446666718 -10
v 4.30714321 0.446666718 -10
v 1.40714335 0.820000172 -10
v 1.69714332 0.820000172 -10
v 1.98714328 0.820000172 -10
v 2.27714348 0.820000172 -10
v 2.56714344 0.820000172 -10
v 2.8571434 0.820000172 -10
v 3.14714336 0.820000172 -10
v 3.43714333 0.820000172 -10
v 3.72714353 0.820000172 -10
v 4.01714325 0.820000172 -10
v 4.30714321 0.820000172 -10
v 1.40714335 1.19333339 -10
v 1.69714332 1.19333339 -10
v 1.98714328 1.19333339 -10
v 2.27714348 1.19333339 -10
v 2.56714344 1.19333339 -10
v 2.8571434 1.19333339 -10
v 3.14714336 1.19333339 -10
v 3.43714333 1.19333339 -10
v 3.72714353 1.19333339 -10
v 4.01714325 1.19333339 -10
v 4.30714321 1.19333339 -10
v 1.40714335 1.56666672 -10
v 1.69714332 1.56666672 -10
v 1.98714328 1.56666672 -10
v 2.27714348 1.56666672 -10
v 2.56714344 1.56666672 -10
v 2.8571434 1.56666672 -10
v 3.14714336 1.56666672 -10
v 3.43714333 1.56666672 -10
v 3.72714353 1.56666672 -10
v 4.01714325 1.56666672 -10
v 4.30714321 1.56666672 -10
v 1.40714335 1.9400003 -10
v 1.69714332 1.9400003 -10
v 1.98714328 1.9400003 -10
v 2.27714348 1.9400003 -10
v 2.56714344 1.9400003 -10
v 2.8571434 1.9400003 -10
v 3.14714336 1.9400003 -10
v 3.43714333 1.9400003 -10
v 3.72714353 1.9400003 -10
v 4.01714325 1.9400003 -10
v 4.30714321 1.9400003 -10
v 1.40714335 2.31333351 -10
v 1.69714332 2.31333351 -10
v 1.98714328 2.31333351 -10
v 2.27714348 2.31333351 -10
v 2.56714344 2.31333351 -10
v 2.8571434 2.31333351 -10
v 3.14714336 2.31333351 -10
v 3.43714333 2.31333351 -10
v 3.72714353 2.31333351 -10
v 4.01714325 2.31333351 -10
v 4.30714321 2.31333351 -10
v 1.40714335 2.68666673 -10
v 1.69714332 2.68666673 -10
v 1.98714328 2.68666673 -10
v 2.27714348 2.68666673 -10
v 2.56714344 2.68666673 -10
v 2.8571434 2.68666673 -10
v 3.14714336 2.68666673 -10
v 3.43714333 2.68666673 -10
v 3.72714353 2.68666673 -10
v 4.01714325 2.68666673 -10
v 4.30714321 2.68666673 -10
v 1.40714335 3.06000018 -10
v 1.69714332 3.06000018 -10
v 1.98714328 3.06000018 -10
v 2.27714348 3.06000018 -10
v 2.56714344 3.06000018 -10
v 2.8571434 3.06000018 -10
v 3.14714336 3.06000018 -10
v 3.43714333 3.06000018 -10
v 3.72714353 3.06000018 -10
v 4.01714325 3.06000018 -10
v 4.30714321 3.06000018 -10
v 1.40714335 3.4333334 -10
v 1.69714332 3.4333334 -10
v 1.98714328 3.4333334 -10
v 2.27714348 3.4333334 -10
v 2.56714344 3.4333334 -10
v 2.8571434 3.4333334 -10
v 3.14714336 3.4333334 -10
v 3.43714333 3.4333334 -10
v 3.72714353 3.4333334 -10
v 4.01714325 3.4333334 -10
v 4.30714321 3.4333334 -10
v 1.40714335 3.80666685 -10
v 1.69714332 3.80666685 -10
v 1.98714328 3.80666685 -10
v 2.27714348 3.80666685 -10
v 2.56714344 3.80666685 -10
v 2.8571434 3.80666685 -10
v 3.14714336 3.80666685 -10
v 3.43714333 3.80666685 -10
v 3.72714353 3.80666685 -10
v 4.01714325 3.80666685 -10
v 4.30714321 3.80666685 -10
v 1.40714335 4.18000031 -10
v 1.69714332 4.18000031 -10
v 1.98714328 4.18000031 -10
v 2.27714348 4.18000031 -10
v 2.56714344 4.18000031 -10
v 2.8571434 4.18000031 -10
v 3.14714336 4.18000031 -10
v 3.43714333 4.18000031 -10
v 3.72714353 4.18000031 -10
v 4.01714325 4.18000031 -10
v 4.30714321 4.18000031 -10
v 1.40714335 4.55333376 -10
v 1.69714332 4.55333376 -10
v 1.98714328 4.55333376 -10
v 2.27714348 4.55333376 -10
v 2.56714344 4.55333376 -10
v 2.8571434 4.55333376 -10
v 3.14714336 4.55333376 -10
v 3.43714333 4.55333376 -10
v 3.72714353 4.55333376 -10
v 4.01714325 4.55333376 -10
v 4.30714321 4.55333376 -10
v 1.40714335 4.92666721 -10
v 1.69714332 4.92666721 -10
v 1.98714328 4.92666721 -10
v 2.27714348 4.92666721 -10
v 2.56714344 4.92666721 -10
v 2.8571434 4.92666721 -10
v 3.14714336 4.92666721 -10
v 3.43714333 4.92666721 -10
v 3.72714353 4.92666721 -10
v 4.01714325 4.92666721 -10
v 4.30714321 4.92666721 -10
v 1.40714335 5.30000019 -10
v 1.69714332 5.30000019 -10
v 1.98714328 5.30000019 -10
v 2.27714348 5.30000019 -10
v 2.56714344 5.30000019 -10
v 2.8571434 5.30000019 -10
v 3.14714336 5.30000019 -10
v 3.43714333 5.30000019 -10
v 3.72714353 5.30000019 -10
v 4.01714325 5.30000019 -10
v 4.30714321 5.30000019 -10
v 1.40714335 5.30000019 -9.5
v 1.69714332 5.30000019 -9.5
v 1.98714328 5.30000019 -9.5
v 2.27714348 5.30000019 -9.5
v 2.56714344 5.30000019 -9.5
v 2.8571434 5.30000019 -9.5
v 3.14714336 5.30000019 -9.5
v 3.43714333 5.30000019 -9.5
v 3.72714353 5.30000019 -9.5
v 4.01714325 5.30000019 -9.5
v 4.30714321 5.30000019 -9.5
v 4.30714321 -0.299999952 -9.5
v 4.01714325 -0.299999952 -9.5
v 3.72714353 -0.299999952 -9.5
v 3.43714333 -0.299999952 -9.5
v 3.14714336 -0.299999952 -9.5
v 2.8571434 -0.299999952 -9.5
v 2.56714344 -0.299999952 -9.5
v 2.27714348 -0.299999952 -9.5
v 1.98714328 -0.299999952 -9.5
v 1.69714332 -0.299999952 -9.5
v 1.40714335 -0.299999952 -9.5
v 4.30714321 0.0733332634 -9.5
v 4.30714321 0.446666718 -9.5
v 4.30714321 0.820000172 -9.5
v 4.30714321 1.19333339 -9.5
v 4.30714321 1.56666672 -9.5
v 4.30714321 1.9400003 -9.5
v 4.30714321 2.31333351 -9.5
v 4.30714321 2.68666673 -9.5
v 4.30714321 3.06000018 -9.5
v 4.30714321 3.4333334 -9.5
v 4.30714321 3.80666685 -9.5
v 4.30714321 4.18000031 -9.5
v 4.30714321 4.55333376 -9.5
v 4.30714321 4.92666721 -9.5
v 1.40714335 0.0733332634 -9.5
v 1.40714335 0.446666718 -9.5
v 1.40714335 0.820000172 -9.5
v 1.40714335 1.19333339 -9.5
v 1.40714335 1.56666672 -9.5
v 1.40714335 1.9400003 -9.5
v 1.40714335 2.31333351 -9.5
v 1.40714335 2.68666673 -9.5
v 1.40714335 3.06000018 -9.5
v 1.40714335 3.4333334 -9.5
v 1.40714335 3.80666685 -9.5
v 1.40714335 4.18000031 -9.5
v 1.40714335 4.55333376 -9.5
v 1.40714335 4.92666721 -9.5
v 4.06014347 0.0303332806 -9.59000015
v 3.72714353 0.0303332806 -9.59000015
v 3.72714353 0.4896667 -9.59000015
v 4.06014347 0.4896667 -9.59000015
v 3.39414334 0.0303332806 -9.59000015
v 3.39414334 0.4896667 -9.59000015
v 3.19014335 0.0303332806 -9.59000015
v 2.8571434 0.0303332806 -9.59000015
v 2.8571434 0.4896667 -9.59000015
v 3.19014335 0.4896667 -9.59000015
v 2.52414322 0.0303332806 -9.59000015
v 2.52414322 0.4896667 -9.59000015
v 2.32014346 0.0303332806 -9.59000015
v 1.98714328 0.0303332806 -9.59000015
v 1.98714328 0.4896667 -9.59000015
v 2.32014346 0.4896667 -9.59000015
v 1.65414333 0.0303332806 -9.59000015
v 1.65414333 0.4896667 -9.59000015
v 4.06014347 0.777000189 -9.59000015
v 3.72714353 0.777000189 -9.59000015
v 3.72714353 1.19333339 -9.59000015
v 4.06014347 1.19333339 -9.59000015
v 3.39414334 0.777000189 -9.59000015
v 3.39414334 1.19333339 -9.59000015
v 3.72714353 1.60966671 -9.59000015
v 4.06014347 1.60966671 -9.59000015
v 3.39414334 1.60966671 -9.59000015
v 3.19014335 0.777000189 -9.59000015
v 2.8571434 0.777000189 -9.59000015
v 2.8571434 1.19333339 -9.59000015
v 3.19014335 1.19333339 -9.59000015
v 2.52414322 0.777000189 -9.59000015
v 2.52414322 1.19333339 -9.59000015
v 2.8571434 1.60966671 -9.59000015
v 3.19014335 1.60966671 -9.59000015
v 2.52414322 1.60966671 -9.59000015
v 2.32014346 0.777000189 -9.59000015
v 1.98714328 0.777000189 -9.59000015
v 1.98714328 1.19333339 -9.59000015
v 2.32014346 1.19333339 -9.59000015
v 1.65414333 0.777000189 -9.59000015
v 1.65414333 1.19333339 -9.59000015
v 1.98714328 1.60966671 -9.59000015
v 2.32014346 1.60966671 -9.59000015
v 1.65414333 1.60966671 -9.59000015
v 4.06014347 1.89700031 -9.59000015
v 3.72714353 1.89700031 -9.59000015
v 3.72714353 2.31333351 -9.59000015
v 4.06014347 2.31333351 -9.59000015
v 3.39414334 1.89700031 -9.59000015
v 3.39414334 2.31333351 -9.59000015
v 3.72714353 2.72966671 -9.59000015
v 4.06014347 2.72966671 -9.59000015
v 3.39414334 2.72966671 -9.59000015
v 3.19014335 1.89700031 -9.59000015
v 2.8571434 1.89700031 -9.59000015
v 2.8571434 2.31333351 -9.59000015
v 3.19014335 2.31333351 -9.59000015
v 2.52414322 1.89700031 -9.59000015
v 2.52414322 2.31333351 -9.59000015
v 2.8571434 2.72966671 -9.59000015
v 3.19014335 2.72966671 -9.59000015
v 2.52414322 2.72966671 -9.59000015
v 2.32014346 1.89700031 -9.59000015
v 1.98714328 1.89700031 -9.59000015
v 1.98714328 2.31333351 -9.59000015
v 2.32014346 2.31333351 -9.59000015
v 1.65414333 1.89700031 -9.59000015
v 1.65414333 2.31333351 -9.59000015
v 1.98714328 2.72966671 -9.59000015
v 2.32014346 2.72966671 -9.59000015
v 1.65414333 2.72966671 -9.59000015
v 4.06014347 3.0170002 -9.59000015
v 3.72714353 3.0170002 -9.59000015
v 3.72714353 3.4333334 -9.59000015
v 4.06014347 3.4333334 -9.59000015
v 3.39414334 3.0170002 -9.59000015
v 3.39414334 3.4333334 -9.59000015
v 3.72714353 3.8496666 -9.59000015
v 4.06014347 3.8496666 -9.59000015
v 3.39414334 3.8496666 -9.59000015
v 3.19014335 3.0170002 -9.59000015
v 2.8571434 3.0170002 -9.59000015
v 2.8571434 3.4333334 -9.59000015
v 3.19014335 3.4333334 -9.59000015
v 2.52414322 3.0170002 -9.59000015
v 2.52414322 3.4333334 -9.59000015
v 2.8571434 3.8496666 -9.59000015
v 3.19014335 3.8496666 -9.59000015
v 2.52414322 3.8496666 -9.59000015
v 2.32014346 3.0170002 -9.59000015
v 1.98714328 3.0170002 -9.59000015
v 1.98714328 3.4333334 -9.59000015
v 2.32014346 3.4333334 -9.59000015
v 1.65414333 3.0170002 -9.59000015
v 1.65414333 3.4333334 -9.59000015
v 1.98714328 3.8496666 -9.59000015
v 2.32014346 3.8496666 -9.59000015
v 1.65414333 3.8496666 -9.59000015
v 4.06014347 4.13700056 -9.59000015
v 3.72714353 4.13700056 -9.59000015
v 3.72714353 4.55333376 -9.59000015
v 4.06014347 4.55333376 -9.59000015
v 3.39414334 4.13700056 -9.59000015
v 3.39414334 4.55333376 -9.59000015
v 3.72714353 4.96966696 -9.59000015
v 4.06014347 4.96966696 -9.59000015
v 3.39414334 4.96966696 -9.59000015
v 3.19014335 4.13700056 -9.59000015
v 2.8571434 4.13700056 -9.59000015
v 2.8571434 4.55333376 -9.59000015
v 3.19014335 4.55333376 -9.59000015
v 2.52414322 4.13700056 -9.59000015
v 2.52414322 4.55333376 -9.59000015
v 2.8571434 4.96966696 -9.59000015
v 3.19014335 4.96966696 -9.59000015
v 2.52414322 4.96966696 -9.59000015
v 2.32014346 4.13700056 -9.59000015
v 1.98714328 4.13700056 -9.59000015
v 1.98714328 4.55333376 -9.59000015
v 2.32014346 4.55333376 -9.59000015
v 1.65414333 4.13700056 -9.59000015
v 1.65414333 4.55333376 -9.59000015
v 1.98714328 4.96966696 -9.59000015
v 2.32014346 4.96966696 -9.59000015
v 1.65414333 4.96966696 -9.59000015
g bookshelf
f 1 12 13 2
f 2 13 14 3
f 3 14 15 4
f 4 15 16 5
f 5 16 17 6
f 6 17 18 7
f 7 18 19 8
f 8 19 20 9
f 9 20 21 10
f 10 21 22 11
f 12 23 24 13
f 15 26 27 16
f 18 29 30 19
f 21 32 33 22
f 23 34 35 24
f 24 35 36 25
f 25 36 37 26
f 26 37 38 27
f 27 38 39 28
f 28 39 40 29
f 29 40 41 30
f 30 41 42 31
f 31 42 43 32
f 32 43 44 33
f 34 45 46 35
f 37 47 48 38
f 40 49 50 41
f 43 51 52 44
f 45 53 54 46
f 47 56 57 48
f 49 59 60 50
f 51 62 63 52
f 53 64 65 54
f 54 65 66 55
f 55 66 67 56
f 56 67 68 57
f 57 68 69 58
f 58 69 70 59
f 59 70 71 60
f 60 71 72 61
f 61 72 73 62
f 62 73 74 63
f 64 75 76 65
f 67 77 78 68
f 70 79 80 71
f 73 81 82 74
f 75 83 84 76
f 77 86 87 78
f 79 89 90 80
f 81 92 93 82
f 83 94 95 84
f 84 95 96 85
f 85 96 97 86
f 86 97 98 87
f 87 98 99 88
f 88 99 100 89
f 89 100 101 90
f 90 101 102 91
f 91 102 103 92
f 92 103 104 93
f 94 105 106 95
f 97 107 108 98
f 100 109 110 101
f 103 111 112 104
f 105 113 114 106
f 107 116 117 108
f 109 119 120 110
f 111 122 123 112
f 113 124 125 114
f 114 125 126 115
f 115 126 127 116
f 116 127 128 117
f 117 128 129 118
f 118 129 130 119
f 119 130 131 120
f 120 131 132 121
f 121 132 133 122
f 122 133 134 123
f 124 135 136 125
f 127 137 138 128
f 130 139 140 131
f 133 141 142 134
f 135 143 144 136
f 137 146 147 138
f 139 149 150 140
f 141 152 153 142
f 143 154 155 144
f 144 155 156 145
f 145 156 157 146
f 146 157 158 147
f 147 158 159 148
f 148 159 160 149
f 149 160 161 150
f 150 161 162 151
f 151 162 163 152
f 152 163 164 153
f 165 176 177 166
f 166 177 178 167
f 167 178 179 168
f 168 179 180 169
f 169 180 181 170
f 170 181 182 171
f 171 182 183 172
f 172 183 184 173
f 173 184 185 174
f 174 185 186 175
f 176 187 188 177
f 177 188 189 178
f 178 189 190 179
f 179 190 191 180
f 180 191 192 181
f 181 192 193 182
f 182 193 194 183
f 183 194 195 184
f 184 195 196 185
f 185 196 197 186
f 187 198 199 188
f 188 199 200 189
f 189 200 201 190
f 190 201 202 191
f 191 202 203 192
f 192 203 204 193
f 193 204 205 194
f 194 205 206 195
f 195 206 207 196
f 196 207 208 197
f 198 209 210 199
f 199 210 211 200
f 200 211 212 201
f 201 212 213 202
f 202 213 214 203
f 203 214 215 204
f 204 215 216 205
f 205 216 217 206
f 206 217 218 207
f 207 218 219 208
f 209 220 221 210
f 210 221 222 211
f 211 222 223 212
f 212 223 224 213
f 213 224 225 214
f 214 225 226 215
f 215 226 227 216
f 216 227 228 217
f 217 228 229 218
f 218 229 230 219
f 220 231 232 221
f 221 232 233 222
f 222 233 234 223
f 223 234 235 224
f 224 235 236 225
f 225 236 237 226
f 226 237 238 227
f 227 238 239 228
f 228 239 240 229
f 229 240 241 230
f 231 242 243 232
f 232 243 244 233
f 233 244 245 234
f 234 245 246 235
f 235 246 247 236
f 236 247 248 237
f 237 248 249 238
f 238 249 250 239
f 239 250 251 240
f 240 251 252 241
f 242 253 254 243
f 243 254 255 244
f 244 255 256 245
f 245 256 257 246
f 246 257 258 247
f 247 258 259 248
f 248 259 260 249
f 249 260 261 250
f 250 261 262 251
f 251 262 263 252
f 253 264 265 254
f 254 265 266 255
f 255 266 267 256
f 256 267 268 257
f 257 268 269 258
f 258 269 270 259
f 259 270 271 260
f 260 271 272 261
f 261 272 273 262
f 262 273 274 263
f 264 275 276 265
f 265 276 277 266
f 266 277 278 267
f 267 278 279 268
f 268 279 280 269
f 269 280 281 270
f 270 281 282 271
f 271 282 283 272
f 272 283 284 273
f 273 284 285 274
f 275 286 287 276
f 276 287 288 277
f 277 288 289 278
f 278 289 290 279
f 279 290 291 280
f 280 291 292 281
f 281 292 293 282
f 282 293 294 283
f 283 294 295 284
f 284 295 296 285
f 286 297 298 287
f 287 298 299 288
f 288 299 300 289
f 289 300 301 290
f 290 301 302 291
f 291 302 303 292
f 292 303 304 293
f 293 304 305 294
f 294 305 306 295
f 295 306 307 296
f 297 308 309 298
f 298 309 310 299
f 299 310 311 300
f 300 311 312 301
f 301 312 313 302
f 302 313 314 303
f 303 314 315 304
f 304 315 316 305
f 305 316 317 306
f 306 317 318 307
f 308 319 320 309
f 309 320 321 310
f 310 321 322 311
f 311 322 323 312
f 312 323 324 313
f 313 324 325 314
f 314 325 326 315
f 315 326 327 316
f 316 327 328 317
f 317 328 329 318
f 319 330 331 320
f 320 331 332 321
f 321 332 333 322
f 322 333 334 323
f 323 334 335 324
f 324 335 336 325
f 325 336 337 326
f 326 337 338 327
f 327 338 339 328
f 328 339 340 329
f 330 341 342 331
f 331 342 343 332
f 332 343 344 333
f 333 344 345 334
f 334 345 346 335
f 335 346 347 336
f 336 347 348 337
f 337 348 349 338
f 338 349 350 339
f 339 350 351 340
f 341 164 163 342
f 342 163 162 343
f 343 162 161 344
f 344 161 160 345
f 345 160 159 346
f 346 159 158 347
f 347 158 157 348
f 348 157 156 349
f 349 156 155 350
f 350 155 154 351
f 175 352 353 174
f 174 353 354 173
f 173 354 355 172
f 172 355 356 171
f 171 356 357 170
f 170 357 358 169
f 169 358 359 168
f 168 359 360 167
f 167 360 361 166
f 166 361 362 165
f 352 1 2 353
f 353 2 3 354
f 354 3 4 355
f 355 4 5 356
f 356 5 6 357
f 357 6 7 358
f 358 7 8 359
f 359 8 9 360
f 360 9 10 361
f 361 10 11 362
f 175 186 363 352
f 352 363 12 1
f 186 197 364 363
f 363 364 23 12
f 197 208 365 364
f 364 365 34 23
f 208 219 366 365
f 365 366 45 34
f 219 230 367 366
f 366 367 53 45
f 230 241 368 367
f 367 368 64 53
f 241 252 369 368
f 368 369 75 64
f 252 263 370 369
f 369 370 83 75
f 263 274 371 370
f 370 371 94 83
f 274 285 372 371
f 371 372 105 94
f 285 296 373 372
f 372 373 113 105
f 296 307 374 373
f 373 374 124 113
f 307 318 375 374
f 374 375 135 124
f 318 329 376 375
f 375 376 143 135
f 329 340 351 376
f 376 351 154 143
f 11 22 377 362
f 362 377 176 165
f 22 33 378 377
f 377 378 187 176
f 33 44 379 378
f 378 379 198 187
f 44 52 380 379
f 379 380 209 198
f 52 63 381 380
f 380 381 220 209
f 63 74 382 381
f 381 382 231 220
f 74 82 383 382
f 382 383 242 231
f 82 93 384 383
f 383 384 253 242
f 93 104 385 384
f 384 385 264 253
f 104 112 386 385
f 385 386 275 264
f 112 123 387 386
f 386 387 286 275
f 123 134 388 387
f 387 388 297 286
f 134 142 389 388
f 388 389 308 297
f 142 153 390 389
f 389 390 319 308
f 153 164 341 390
f 390 341 330 319
f 13 391 392 14
f 14 392 395 15
f 15 395 396 26
f 26 396 393 25
f 25 393 394 24
f 24 394 391 13
f 16 397 398 17
f 17 398 401 18
f 18 401 402 29
f 29 402 399 28
f 28 399 400 27
f 27 400 397 16
f 19 403 404 20
f 20 404 407 21
f 21 407 408 32
f 32 408 405 31
f 31 405 406 30
f 30 406 403 19
f 35 409 410 36
f 36 410 413 37
f 37 413 414 47
f 47 414 417 56
f 56 417 415 55
f 55 415 416 54
f 54 416 412 46
f 46 412 409 35
f 38 418 419 39
f 39 419 422 40
f 40 422 423 49
f 49 423 426 59
f 59 426 424 58
f 58 424 425 57
f 57 425 421 48
f 48 421 418 38
f 41 427 428 42
f 42 428 431 43
f 43 431 432 51
f 51 432 435 62
f 62 435 433 61
f 61 433 434 60
f 60 434 430 50
f 50 430 427 41
f 65 436 437 66
f 66 437 440 67
f 67 440 441 77
f 77 441 444 86
f 86 444 442 85
f 85 442 443 84
f 84 443 439 76
f 76 439 436 65
f 68 445 446 69
f 69 446 449 70
f 70 449 450 79
f 79 450 453 89
f 89 453 451 88
f 88 451 452 87
f 87 452 448 78
f 78 448 445 68
f 71 454 455 72
f 72 455 458 73
f 73 458 459 81
f 81 459 462 92
f 92 462 460 91
f 91 460 461 90
f 90 461 457 80
f 80 457 454 71
f 95 463 464 96
f 96 464 467 97
f 97 467 468 107
f 107 468 471 116
f 116 471 469 115
f 115 469 470 114
f 114 470 466 106
f 106 466 463 95
f 98 472 473 99
f 99 473 476 100
f 100 476 477 109
f 109 477 480 119
f 119 480 478 118
f 118 478 479 117
f 117 479 475 108
f 108 475 472 98
f 101 481 482 102
f 102 482 485 103
f 103 485 486 111
f 111 486 489 122
f 122 489 487 121
f 121 487 488 120
f 120 488 484 110
f 110 484 481 101
f 125 490 491 126
f 126 491 494 127
f 127 494 495 137
f 137 495 498 146
f 146 498 496 145
f 145 496 497 144
f 144 497 493 136
f 136 493 490 125
f 128 499 500 129
f 129 500 503 130
f 130 503 504 139
f 139 504 507 149
f 149 507 505 148
f 148 505 506 147
f 147 506 502 138
f 138 502 499 128
f 131 508 509 132
f 132 509 512 133
f 133 512 513 141
f 141 513 516 152
f 152 516 514 151
f 151 514 515 150
f 150 515 511 140
f 140 511 508 131
f 517 528 529 518
f 518 529 530 519
f 519 530 531 520
f 520 531 532 521
f 521 532 533 522
f 522 533 534 523
f 523 534 535 524
f 524 535 536 525
f 525 536 537 526
f 526 537 538 527
f 528 539 540 529
f 531 542 543 532
f 534 545 546 535
f 537 548 549 538
f 539 550 551 540
f 540 551 552 541
f 541 552 553 542
f 542 553 554 543
f 543 554 555 544
f 544 555 556 545
f 545 556 557 546
f 546 557 558 547
f 547 558 559 548
f 548 559 560 549
f 550 561 562 551
f 553 563 564 554
f 556 565 566 557
f 559 567 568 560
f 561 569 570 562
f 563 572 573 564
f 565 575 576 566
f 567 578 579 568
f 569 580 581 570
f 570 581 582 571
f 571 582 583 572
f 572 583 584 573
f 573 584 585 574
f 574 585 586 575
f 575 586 587 576
f 576 587 588 577
f 577 588 589 578
f 578 589 590 579
f 580 591 592 581
f 583 593 594 584
f 586 595 596 587
f 589 597 598 590
f 591 599 600 592
f 593 602 603 594
f 595 605 606 596
f 597 608 609 598
f 599 610 611 600
f 600 611 612 601
f 601 612 613 602
f 602 613 614 603
f 603 614 615 604
f 604 615 616 605
f 605 616 617 606
f 606 617 618 607
f 607 618 619 608
f 608 619 620 609
f 610 621 622 611
f 613 623 624 614
f 616 625 626 617
f 619 627 628 620
f 621 629 630 622
f 623 632 633 624
f 625 635 636 626
f 627 638 639 628
f 629 640 641 630
f 630 641 642 631
f 631 642 643 632
f 632 643 644 633
f 633 644 645 634
f 634 645 646 635
f 635 646 647 636
f 636 647 648 637
f 637 648 649 638
f 638 649 650 639
f 640 651 652 641
f 643 653 654 644
f 646 655 656 647
f 649 657 658 650
f 651 659 660 652
f 653 662 663 654
f 655 665 666 656
f 657 668 669 658
f 659 670 671 660
f 660 671 672 661
f 661 672 673 662
f 662 673 674 663
f 663 674 675 664
f 664 675 676 665
f 665 676 677 666
f 666 677 678 667
f 667 678 679 668
f 668 679 680 669
f 681 692 693 682
f 682 693 694 683
f 683 694 695 684
f 684 695 696 685
f 685 696 697 686
f 686 697 698 687
f 687 698 699 688
f 688 699 700 689
f 689 700 701 690
f 690 701 702 691
f 692 703 704 693
f 693 704 705 694
f 694 705 706 695
f 695 706 707 696
f 696 707 708 697
f 697 708 709 698
f 698 709 710 699
f 699 710 711 700
f 700 711 712 701
f 701 712 713 702
f 703 714 715 704
f 704 715 716 705
f 705 716 717 706
f 706 717 718 707
f 707 718 719 708
f 708 719 720 709
f 709 720 721 710
f 710 721 722 711
f 711 722 723 712
f 712 723 724 713
f 714 725 726 715
f 715 726 727 716
f 716 727 728 717
f 717 728 729 718
f 718 729 730 719
f 719 730 731 720
f 720 731 732 721
f 721 732 733 722
f 722 733 734 723
f 723 734 735 724
f 725 736 737 726
f 726 737 738 727
f 727 738 739 728
f 728 739 740 729
f 729 740 741 730
f 730 741 742 731
f 731 742 743 732
f 732 743 744 733
f 733 744 745 734
f 734 745 746 735
f 736 747 748 737
f 737 748 749 738
f 738 749 750 739
f 739 750 751 740
f 740 751 752 741
f 741 752 753 742
f 742 753 754 743
f 743 754 755 744
f 744 755 756 745
f 745 756 757 746
f 747 758 759 748
f 748 759 760 749
f 749 760 761 750
f 750 761 762 751
f 751 762 763 752
f 752 763 764 753
f 753 764 765 754
f 754 765 766 755
f 755 766 767 756
f 756 767 768 757
f 758 769 770 759
f 759 770 771 760
f 760 771 772 761
f 761 772 773 762
f 762 773 774 763
f 763 774 775 764
f 764 775 776 765
f 765 776 777 766
f 766 777 778 767
f 767 778 779 768
f 769 780 781 770
f 770 781 782 771
f 771 782 783 772
f 772 783 784 773
f 773 784 785 774
f 774 785 786 775
f 775 786 787 776
f 776 787 788 777
f 777 788 789 778
f 778 789 790 779
f 780 791 792 781
f 781 792 793 782
f 782 793 794 783
f 783 794 795 784
f 784 795 796 785
f 785 796 797 786
f 786 797 798 787
f 787 798 799 788
f 788 799 800 789
f 789 800 801 790
f 791 802 803 792
f 792 803 804 793
f 793 804 805 794
f 794 805 806 795
f 795 806 807 796
f 796 807 808 797
f 797 808 809 798
f 798 809 810 799
f 799 810 811 800
f 800 811 812 801
f 802 813 814 803
f 803 814 815 804
f 804 815 816 805
f 805 816 817 806
f 806 817 818 807
f 807 818 819 808
f 808 819 820 809
f 809 820 821 810
f 810 821 822 811
f 811 822 823 812
f 813 824 825 814
f 814 825 826 815
f 815 826 827 816
f 816 827 828 817
f 817 828 829 818
f 818 829 830 819
f 819 830 831 820
f 820 831 832 821
f 821 832 833 822
f 822 833 834 823
f 824 835 836 825
f 825 836 837 826
f 826 837 838 827
f 827 838 839 828
f 828 839 840 829
f 829 840 841 830
f 830 841 842 831
f 831 842 843 832
f 832 843 844 833
f 833 844 845 834
f 835 846 847 836
f 836 847 848 837
f 837 848 849 838
f 838 849 850 839
f 839 850 851 840
f 840 851 852 841
f 841 852 853 842
f 842 853 854 843
f 843 854 855 844
f 844 855 856 845
f 846 857 858 847
f 847 858 859 848
f 848 859 860 849
f 849 860 861 850
f 850 861 862 851
f 851 862 863 852
f 852 863 864 853
f 853 864 865 854
f 854 865 866 855
f 855 866 867 856
f 857 680 679 858
f 858 679 678 859
f 859 678 677 860
f 860 677 676 861
f 861 676 675 862
f 862 675 674 863
f 863 674 673 864
f 864 673 672 865
f 865 672 671 866
f 866 671 670 867
f 691 868 869 690
f 690 869 870 689
f 689 870 871 688
f 688 871 872 687
f 687 872 873 686
f 686 873 874 685
f 685 874 875 684
f 684 875 876 683
f 683 876 877 682
f 682 877 878 681
f 868 517 518 869
f 869 518 519 870
f 870 519 520 871
f 871 520 521 872
f 872 521 522 873
f 873 522 523 874
f 874 523 524 875
f 875 524 525 876
f 876 525 526 877
f 877 526 527 878
f 691 702 879 868
f 868 879 528 517
f 702 713 880 879
f 879 880 539 528
f 713 724 881 880
f 880 881 550 539
f 724 735 882 881
f 881 882 561 550
f 735 746 883 882
f 882 883 569 561
f 746 757 884 883
f 883 884 580 569
f 757 768 885 884
f 884 885 591 580
f 768 779 886 885
f 885 886 599 591
f 779 790 887 886
f 886 887 610 599
f 790 801 888 887
f 887 888 621 610
f 801 812 889 888
f 888 889 629 621
f 812 823 890 889
f 889 890 640 629
f 823 834 891 890
f 890 891 651 640
f 834 845 892 891
f 891 892 659 651
f 845 856 867 892
f 892 867 670 659
f 527 538 893 878
f 878 893 692 681
f 538 549 894 893
f 893 894 703 692
f 549 560 895 894
f 894 895 714 703
f 560 568 896 895
f 895 896 725 714
f 568 579 897 896
f 896 897 736 725
f 579 590 898 897
f 897 898 747 736
f 590 598 899 898
f 898 899 758 747
f 598 609 900 899
f 899 900 769 758
f 609 620 901 900
f 900 901 780 769
f 620 628 902 901
f 901 902 791 780
f 628 639 903 902
f 902 903 802 791
f 639 650 904 903
f 903 904 813 802
f 650 658 905 904
f 904 905 824 813
f 658 669 906 905
f 905 906 835 824
f 669 680 857 906
f 906 857 846 835
f 529 907 908 530
f 530 908 911 531
f 531 911 912 542
f 542 912 909 541
f 541 909 910 540
f 540 910 907 529
f 532 913 914 533
f 533 914 917 534
f 534 917 918 545
f 545 918 915 544
f 544 915 916 543
f 543 916 913 532
f 535 919 920 536
f 536 920 923 537
f 537 923 924 548
f 548 924 921 547
f 547 921 922 546
f 546 922 919 535
f 551 925 926 552
f 552 926 929 553
f 553 929 930 563
f 563 930 933 572
f 572 933 931 571
f 571 931 932 570
f 570 932 928 562
f 562 928 925 551
f 554 934 935 555
f 555 935 938 556
f 556 938 939 565
f 565 939 942 575
f 575 942 940 574
f 574 940 941 573
f 573 941 937 564
f 564 937 934 554
f 557 943 944 558
f 558 944 947 559
f 559 947 948 567
f 567 948 951 578
f 578 951 949 577
f 577 949 950 576
f 576 950 946 566
f 566 946 943 557
f 581 952 953 582
f 582 953 956 583
f 583 956 957 593
f 593 957 960 602
f 602 960 958 601
f 601 958 959 600
f 600 959 955 592
f 592 955 952 581
f 584 961 962 585
f 585 962 965 586
f 586 965 966 595
f 595 966 969 605
f 605 969 967 604
f 604 967 968 603
f 603 968 964 594
f 594 964 961 584
f 587 970 971 588
f 588 971 974 589
f 589 974 975 597
f 597 975 978 608
f 608 978 976 607
f 607 976 977 606
f 606 977 973 596
f 596 973 970 587
f 611 979 980 612
f 612 980 983 613
f 613 983 984 623
f 623 984 987 632
f 632 987 985 631
f 631 985 986 630
f 630 986 982 622
f 622 982 979 611
f 614 988 989 615
f 615 989 992 616
f 616 992 993 625
f 625 993 996 635
f 635 996 994 634
f 634 994 995 633
f 633 995 991 624
f 624 991 988 614
f 617 997 998 618
f 618 998 1001 619
f 619 1001 1002 627
f 627 1002 1005 638
f 638 1005 1003 637
f 637 1003 1004 636
f 636 1004 1000 626
f 626 1000 997 617
f 641 1006 1007 642
f 642 1007 1010 643
f 643 1010 1011 653
f 653 1011 1014 662
f 662 1014 1012 661
f 661 1012 1013 660
f 660 1013 1009 652
f 652 1009 1006 641
f 644 1015 1016 645
f 645 1016 1019 646
f 646 1019 1020 655
f 655 1020 1023 665
f 665 1023 1021 664
f 664 1021 1022 663
f 663 1022 1018 654
f 654 1018 1015 644
f 647 1024 1025 648
f 648 1025 1028 649
f 649 1028 1029 657
f 657 1029 1032 668
f 668 1032 1030 667
f 667 1030 1031 666
f 666 1031 1027 656
f 656 1027 1024 647
g bookshelf prateleiras
f 391 394 393 392
f 392 393 396 395
f 397 400 399 398
f 398 399 402 401
f 403 406 405 404
f 404 405 408 407
f 409 412 411 410
f 410 411 414 413
f 412 416 415 411
f 411 415 417 414
f 418 421 420 419
f 419 420 423 422
f 421 425 424 420
f 420 424 426 423
f 427 430 429 428
f 428 429 432 431
f 430 434 433 429
f 429 433 435 432
f 436 439 438 437
f 437 438 441 440
f 439 443 442 438
f 438 442 444 441
f 445 448 447 446
f 446 447 450 449
f 448 452 451 447
f 447 451 453 450
f 454 457 456 455
f 455 456 459 458
f 457 461 460 456
f 456 460 462 459
f 463 466 465 464
f 464 465 468 467
f 466 470 469 465
f 465 469 471 468
f 472 475 474 473
f 473 474 477 476
f 475 479 478 474
f 474 478 480 477
f 481 484 483 482
f 482 483 486 485
f 484 488 487 483
f 483 487 489 486
f 490 493 492 491
f 491 492 495 494
f 493 497 496 492
f 492 496 498 495
f 499 502 501 500
f 500 501 504 503
f 502 506 505 501
f 501 505 507 504
f 508 511 510 509
f 509 510 513 512
f 511 515 514 510
f 510 514 516 513
f 907 910 909 908
f 908 909 912 911
f 913 916 915 914
f 914 915 918 917
f 919 922 921 920
f 920 921 924 923
f 925 928 927 926
f 926 927 930 929
f 928 932 931 927
f 927 931 933 930
f 934 937 936 935
f 935 936 939 938
f 937 941 940 936
f 936 940 942 939
f 943 946 945 944
f 944 945 948 947
f 946 950 949 945
f 945 949 951 948
f 952 955 954 953
f 953 954 957 956
f 955 959 958 954
f 954 958 960 957
f 961 964 963 962
f 962 963 966 965
f 964 968 967 963
f 963 967 969 966
f 970 973 972 971
f 971 972 975 974
f 973 977 976 972
f 972 976 978 975
f 979 982 981 980
f 980 981 984 983
f 982 986 985 981
f 981 985 987 984
f 988 991 990 989
f 989 990 993 992
f 991 995 994 990
f 990 994 996 993
f 997 1000 999 998
f 998 999 1002 1001
f 1000 1004 1003 999
f 999 1003 1005 1002
f 1006 1009 1008 1007
f 1007 1008 1011 1010
f 1009 1013 1012 1008
f 1008 1012 1014 1011
f 1015 1018 1017 1016
f 1016 1017 1020 1019
f 1018 1022 1021 1017
f 1017 1021 1023 1020
f 1024 1027 1026 1025
f 1025 1026 1029 1028
f 1027 1031 1030 1026
f 1026 1030 1032 1029
