# File exported by Houdini 19.0.622 (www.sidefx.com)
# 100 points
# 324 vertices
# 81 primitives
# Bounds: [-10, 0, -10] to [10, 0.0140000004, 10]
g 
v 1.4285717 0 -10
v 10 0 7.1428566
v 10 0 -7.14285707
v -7.14285707 0 10
v 10 0 -10
v -10 0 1.4285717
v 4.2857151 0 4.2857151
v 1.4285717 0 -1.4285717
v 4.2857151 0 -10
v -10 0 -10
v 10 0 4.2857151
v -1.4285717 0 -10
v 10 0 1.4285717
v 4.2857151 0 -4.28571415
v -7.14285707 0 -10
v -10 0 4.2857151
v 10 0 -4.28571415
v 1.4285717 0 -4.28571415
v 7.1428566 0 -4.28571415
v 1.4285717 0 4.2857151
v -1.4285717 0 10
v 4.2857151 0 10
v 1.4285717 0 1.4285717
v 7.1428566 0 10
v -4.28571415 0 10
v -10 0 7.1428566
v -4.28571415 0 -10
v -10 0 -7.14285707
v -10 0 10
v 1.4285717 0 10
v -10 0 -1.4285717
v 10 0 -1.4285717
v 7.1428566 0 1.4285717
v 7.1428566 0 -10
v -10 0 -4.28571415
v 7.1428566 0 -1.4285717
v 7.1428566 0 4.2857151
v 10 0 10
v -10 0.0140000004 -10
v -7.14285707 0.0140000004 -10
v -7.14285707 0.0140000004 -7.14285707
v -10 0.0140000004 -7.14285707
v -4.28571415 0.0140000004 -10
v -4.28571415 0.0140000004 -7.14285707
v -1.4285717 0.0140000004 -10
v -1.4285717 0.0140000004 -7.14285707
v 1.4285717 0.0140000004 -10
v 1.4285717 0.0140000004 -7.14285707
v 4.2857151 0.0140000004 -10
v 4.2857151 0.0140000004 -7.14285707
v 7.1428566 0.0140000004 -10
v 7.1428566 0.0140000004 -7.14285707
v 10 0.0140000004 -10
v 10 0.0140000004 -7.14285707
v -7.14285707 0.0140000004 -4.28571415
v -10 0.0140000004 -4.28571415
v -4.28571415 0.0140000004 -4.28571415
v -1.4285717 0.0140000004 -4.28571415
v 1.4285717 0.0140000004 -4.28571415
v 4.2857151 0.0140000004 -4.28571415
v 7.1428566 0.0140000004 -4.28571415
v 10 0.0140000004 -4.28571415
v -7.14285707 0.0140000004 -1.4285717
v -10 0.0140000004 -1.4285717
v -4.28571415 0.0140000004 -1.4285717
v -1.4285717 0.0140000004 -1.4285717
v 1.4285717 0.0140000004 -1.4285717
v 10 0.0140000004 -1.4285717
v 7.1428566 0.0140000004 -1.4285717
v -7.14285707 0.0140000004 1.4285717
v -10 0.0140000004 1.4285717
v -4.28571415 0.0140000004 1.4285717
v -1.4285717 0.0140000004 1.4285717
v 1.4285717 0.0140000004 1.4285717
v 10 0.0140000004 1.4285717
v 7.1428566 0.0140000004 1.4285717
v -7.14285707 0.0140000004 4.2857151
v -10 0.0140000004 4.2857151
v -4.28571415 0.0140000004 4.2857151
v -1.4285717 0.0140000004 4.2857151
v 1.4285717 0.0140000004 4.2857151
v 10 0.0140000004 4.2857151
v 7.1428566 0.0140000004 4.2857151
v -7.14285707 0.0140000004 7.1428566
v -10 0.0140000004 7.1428566
v -4.28571415 0.0140000004 7.1428566
v -1.4285717 0.0140000004 7.1428566
v 1.4285717 0.0140000004 7.1428566
v 4.2857151 0.0140000004 4.2857151
v 4.2857151 0.0140000004 7.1428566
v 7.1428566 0.0140000004 7.1428566
v 10 0.0140000004 7.1428566
v -7.14285707 0.0140000004 10
v -10 0.0140000004 10
v -4.28571415 0.0140000004 10
v -1.4285717 0.0140000004 10
v 1.4285717 0.0140000004 10
v 4.2857151 0.0140000004 10
v 7.1428566 0.0140000004 10
v 10 0.0140000004 10
g floor
f 39 42 41 40
f 40 41 44 43
f 43 44 46 45
f 45 46 48 47
f 47 48 50 49
f 49 50 52 51
f 51 52 54 53
f 42 56 55 41
f 41 55 57 44
f 44 57 58 46
f 46 58 59 48
f 48 59 60 50
f 50 60 61 52
f 52 61 62 54
f 56 64 63 55
f 55 63 65 57
f 57 65 66 58
f 58 66 67 59
f 61 69 68 62
f 64 71 70 63
f 63 70 72 65
f 65 72 73 66
f 66 73 74 67
f 69 76 75 68
f 71 78 77 70
f 70 77 79 72
f 72 79 80 73
f 73 80 81 74
f 76 83 82 75
f 78 85 84 77
f 77 84 86 79
f 79 86 87 80
f 80 87 88 81
f 81 88 90 89
f 89 90 91 83
f 83 91 92 82
f 85 94 93 84
f 84 93 95 86
f 86 95 96 87
f 87 96 97 88
f 88 97 98 90
f 90 98 99 91
f 91 99 100 92
f 10 39 40 15
f 15 40 43 27
f 27 43 45 12
f 12 45 47 1
f 1 47 49 9
f 9 49 51 34
f 34 51 53 5
f 5 53 54 3
f 3 54 62 17
f 17 62 68 32
f 32 68 75 13
f 13 75 82 11
f 11 82 92 2
f 2 92 100 38
f 38 100 99 24
f 24 99 98 22
f 22 98 97 30
f 30 97 96 21
f 21 96 95 25
f 25 95 93 4
f 4 93 94 29
f 29 94 85 26
f 26 85 78 16
f 16 78 71 6
f 6 71 64 31
f 31 64 56 35
f 35 56 42 28
f 28 42 39 10
f 14 60 59 18
f 18 59 67 8
f 8 67 74 23
f 23 74 81 20
f 20 81 89 7
f 7 89 83 37
f 37 83 76 33
f 33 76 69 36
f 36 69 61 19
f 19 61 60 14
