# File exported by Houdini 19.0.622 (www.sidefx.com)
# 32 points
# 96 vertices
# 20 primitives
# Bounds: [-10.3500004, -0.0199999809, -9.47142792] to [-9.35000038, 3.27999997, -7.6714282]
g 
v -9.35000038 1.70000005 -9.30142784
v -9.35000038 1.79999995 -9.27463341
v -9.35000038 1.87320507 -9.20142841
v -9.35000038 1.89999998 -9.10142803
v -9.35000038 1.87320507 -9.0014286
v -9.35000038 1.79999995 -8.92822361
v -9.35000038 1.70000005 -8.90142822
v -9.35000038 1.5999999 -8.92822361
v -9.35000038 1.52679491 -9.0014286
v -9.35000038 1.5 -9.10142803
v -9.35000038 1.52679491 -9.20142841
v -9.35000038 1.60000002 -9.27463341
v -10.3500004 1.70000005 -9.30142784
v -10.3500004 1.79999995 -9.27463341
v -10.3500004 1.87320507 -9.20142841
v -10.3500004 1.89999998 -9.10142803
v -10.3500004 1.87320507 -9.0014286
v -10.3500004 1.79999995 -8.92822361
v -10.3500004 1.70000005 -8.90142822
v -10.3500004 1.5999999 -8.92822361
v -10.3500004 1.52679491 -9.0014286
v -10.3500004 1.5 -9.10142803
v -10.3500004 1.52679491 -9.20142841
v -10.3500004 1.60000002 -9.27463341
v -9.85000038 -0.0199999809 -9.47142792
v -9.85000038 -0.0199999809 -7.6714282
v -9.85000038 3.27999997 -9.47142792
v -9.85000038 3.27999997 -7.6714282
v -10.3500004 -0.0199999809 -7.6714282
v -10.3500004 -0.0199999809 -9.47142792
v -10.3500004 3.27999997 -7.6714282
v -10.3500004 3.27999997 -9.47142792
g doors
f 12 1 2 3 4 5 6 7 8 9 10 11
f 13 24 23 22 21 20 19 18 17 16 15 14
f 1 13 14 2
f 2 14 15 3
f 3 15 16 4
f 4 16 17 5
f 5 17 18 6
f 6 18 19 7
f 7 19 20 8
f 8 20 21 9
f 9 21 22 10
f 10 22 23 11
f 11 23 24 12
f 12 24 13 1
f 25 27 28 26
f 29 31 32 30
f 31 28 27 32
f 30 25 26 29
f 30 32 27 25
f 26 28 31 29
