# File exported by Houdini 19.0.622 (www.sidefx.com)
# 272 points
# 1044 vertices
# 234 primitives
# Bounds: [-10.2539997, -0.254000008, -10.2539997] to [10.2539997, 5, 10.2539997]
g 
v -10 0 -10
v -7.14285707 0 -10
v -7.14285707 0 -7.14285707
v -10 0 -7.14285707
v -10 0 -7.6714282
v -9.85000038 0 -7.6714282
v -9.85000038 0 -9.47142792
v -10 0 -9.47142792
v -4.28571415 0 -10
v -4.28571415 0 -7.14285707
v -1.4285717 0 -10
v -1.4285717 0 -7.14285707
v 1.4285717 0 -10
v 1.4285717 0 -7.14285707
v 4.2857151 0 -10
v 4.2857151 0 -7.14285707
v 7.1428566 0 -10
v 7.1428566 0 -7.14285707
v 10 0 -10
v 10 0 -7.14285707
v -7.14285707 0 -4.28571415
v -10 0 -4.28571415
v -4.28571415 0 -4.28571415
v -1.4285717 0 -4.28571415
v 1.4285717 0 -4.28571415
v 4.2857151 0 -4.28571415
v 7.1428566 0 -4.28571415
v 10 0 -4.28571415
v -7.14285707 0 -1.4285717
v -10 0 -1.4285717
v -4.28571415 0 -1.4285717
v -1.4285717 0 -1.4285717
v 1.4285717 0 -1.4285717
v 10 0 -1.4285717
v 7.1428566 0 -1.4285717
v -7.14285707 0 1.4285717
v -10 0 1.4285717
v -4.28571415 0 1.4285717
v -1.4285717 0 1.4285717
v 1.4285717 0 1.4285717
v 10 0 1.4285717
v 7.1428566 0 1.4285717
v 10 0 -0.899999976
v 9.85000038 0 -0.899999976
v 9.85000038 0 0.899999976
v 10 0 0.899999976
v -7.14285707 0 4.2857151
v -10 0 4.2857151
v -4.28571415 0 4.2857151
v -1.4285717 0 4.2857151
v 1.4285717 0 4.2857151
v 10 0 4.2857151
v 7.1428566 0 4.2857151
v -7.14285707 0 7.1428566
v -10 0 7.1428566
v -4.28571415 0 7.1428566
v -1.4285717 0 7.1428566
v 1.4285717 0 7.1428566
v 4.2857151 0 4.2857151
v 4.2857151 0 7.1428566
v 7.1428566 0 7.1428566
v 10 0 7.1428566
v -7.14285707 0 10
v -10 0 10
v -4.28571415 0 10
v -1.4285717 0 10
v 1.4285717 0 10
v 4.2857151 0 10
v 7.1428566 0 10
v 10 0 10
v -10 5 -10
v -7.14285707 5 -10
v -4.28571415 5 -10
v -1.4285717 5 -10
v 1.4285717 5 -10
v 4.2857151 5 -10
v 7.1428566 5 -10
v 10 5 -10
v 10 5 1.4285717
v 10 5 4.2857151
v 10 5 7.1428566
v 10 5 10
v 7.1428566 5 10
v 4.2857151 5 10
v 1.4285717 5 10
v -1.4285717 5 10
v -4.28571415 5 10
v -7.14285707 5 10
v -10 5 10
v -10 5 7.1428566
v -10 5 4.2857151
v -10 5 1.4285717
v -10 5 -1.4285717
v -10 5 -4.28571415
v -10 5 -7.14285707
v 4.2857151 5 -4.28571415
v 1.4285717 5 -4.28571415
v 1.4285717 5 -1.4285717
v 1.4285717 5 1.4285717
v 1.4285717 5 4.2857151
v 4.2857151 5 4.2857151
v 7.1428566 5 4.2857151
v 7.1428566 5 1.4285717
v 7.1428566 5 -1.4285717
v 7.1428566 5 -4.28571415
v -10.2539997 -0.253999978 -10.2539997
v -10.2539997 -0.254000008 -7.14285707
v -7.14285707 -0.254000008 -7.14285707
v -7.14285707 -0.254000008 -10.2539997
v -4.28571415 -0.254000008 -7.14285707
v -4.28571415 -0.254000008 -10.2539997
v -1.4285717 -0.254000008 -7.14285707
v -1.4285717 -0.254000008 -10.2539997
v 1.4285717 -0.254000008 -7.14285707
v 1.4285717 -0.254000008 -10.2539997
v 4.2857151 -0.254000008 -7.14285707
v 4.2857151 -0.254000008 -10.2539997
v 7.1428566 -0.254000008 -7.14285707
v 7.1428566 -0.254000008 -10.2539997
v 10.2539997 -0.254000008 -7.14285707
v 10.2539997 -0.253999978 -10.2539997
v -10.2539997 -0.254000008 -4.28571415
v -7.14285707 -0.254000008 -4.28571415
v -4.28571415 -0.254000008 -4.28571415
v -1.4285717 -0.254000008 -4.28571415
v 1.68257165 -0.253999978 -4.03171396
v 4.2857151 -0.254000008 -4.03171396
v 6.88885641 -0.253999978 -4.03171396
v 10.2539997 -0.254000008 -4.28571415
v -10.2539997 -0.254000008 -1.4285717
v -7.14285707 -0.254000008 -1.4285717
v -4.28571415 -0.254000008 -1.4285717
v -1.4285717 -0.254000008 -1.4285717
v 1.68257165 -0.254000008 -1.4285717
v 6.88885641 -0.254000008 -1.4285717
v 10.2539997 -0.254000008 -1.4285717
v -10.2539997 -0.254000008 1.4285717
v -7.14285707 -0.254000008 1.4285717
v -4.28571415 -0.254000008 1.4285717
v -1.4285717 -0.254000008 1.4285717
v 1.68257165 -0.254000008 1.4285717
v 6.88885641 -0.254000008 1.4285717
v 10.2539997 -0.254000008 1.4285717
v -10.2539997 -0.254000008 4.2857151
v -7.14285707 -0.254000008 4.2857151
v -4.28571415 -0.254000008 4.2857151
v -1.4285717 -0.254000008 4.2857151
v 1.68257165 -0.253999978 4.03171492
v 6.88885641 -0.253999978 4.03171492
v 10.2539997 -0.254000008 4.2857151
v -10.2539997 -0.254000008 7.1428566
v -7.14285707 -0.254000008 7.1428566
v -4.28571415 -0.254000008 7.1428566
v -1.4285717 -0.254000008 7.1428566
v 1.4285717 -0.254000008 7.1428566
v 4.2857151 -0.254000008 7.1428566
v 4.2857151 -0.254000008 4.03171492
v 7.1428566 -0.254000008 7.1428566
v 10.2539997 -0.254000008 7.1428566
v -10.2539997 -0.253999978 10.2539997
v -7.14285707 -0.254000008 10.2539997
v -4.28571415 -0.254000008 10.2539997
v -1.4285717 -0.254000008 10.2539997
v 1.4285717 -0.254000008 10.2539997
v 4.2857151 -0.254000008 10.2539997
v 7.1428566 -0.254000008 10.2539997
v 10.2539997 -0.253999978 10.2539997
v -7.14285707 5 -10.2539997
v -10.2539997 5 -10.2539997
v -1.4285717 5 -10.2539997
v -4.28571415 5 -10.2539997
v 1.4285717 5 -10.2539997
v 4.2857151 5 -10.2539997
v 7.1428566 5 -10.2539997
v 10.2539997 5 -10.2539997
v 10.2539997 5 4.2857151
v 10.2539997 5 1.4285717
v 10.2539997 5 7.1428566
v 10.2539997 5 10.2539997
v 4.2857151 5 10.2539997
v 7.1428566 5 10.2539997
v 1.4285717 5 10.2539997
v -1.4285717 5 10.2539997
v -4.28571415 5 10.2539997
v -10.2539997 5 10.2539997
v -7.14285707 5 10.2539997
v -10.2539997 5 7.1428566
v -10.2539997 5 4.2857151
v -10.2539997 5 1.4285717
v -10.2539997 5 -1.4285717
v -10.2539997 5 -4.28571415
v -10.2539997 5 -7.14285707
v 1.68257165 5 -4.03171396
v 4.2857151 5 -4.03171396
v 1.68257165 5 -1.4285717
v 1.68257165 5 1.4285717
v 1.68257165 5 4.03171492
v 4.2857151 5 4.03171492
v 6.88885641 5 4.03171492
v 6.88885641 5 1.4285717
v 6.88885641 5 -1.4285717
v 6.88885641 5 -4.03171396
v 10 5 -1.4285717
v 10.2539997 5 -1.4285717
v 10 5 -4.28571415
v 10.2539997 5 -4.28571415
v 10 5 -7.14285707
v 10.2539997 5 -7.14285707
v -7.00428581 1.91000009 -10
v -4.42428589 1.91000009 -10
v -4.42428589 4.48999977 -10
v -7.00428581 4.48999977 -10
v 10 4.48999977 -9.86142826
v 10 1.91000009 -9.86142826
v 10 1.91000009 -7.28142834
v 10 4.48999977 -7.28142834
v 10 4.48999977 -7.00428581
v 10 1.91000009 -7.00428581
v 10 1.91000009 -4.42428589
v 10 4.48999977 -4.42428589
v 10 4.48999977 -4.14714289
v 10 1.91000009 -4.14714289
v 10 1.91000009 -1.56714296
v 10 4.48999977 -1.56714296
v 10 3.27999997 -0.899999976
v 10 3.27999997 0.899999976
v 9.86142826 4.48999977 10
v 9.86142826 1.91000009 10
v 7.28142834 1.91000009 10
v 7.28142834 4.48999977 10
v -4.42428589 4.48999977 10
v -4.42428589 1.91000009 10
v -7.00428581 1.91000009 10
v -7.00428581 4.48999977 10
v -10 3.27999997 -7.6714282
v -10 3.27999997 -9.47142792
v -7.00428581 4.48999977 -10.2539997
v -4.42428589 4.48999977 -10.2539997
v -4.42428589 1.91000009 -10.2539997
v -7.00428581 1.91000009 -10.2539997
v 10.2539997 1.91000009 -7.28142834
v 10.2539997 1.91000009 -9.86142826
v 10.2539997 4.48999977 -9.86142826
v 10.2539997 4.48999977 -7.28142834
v 10.2539997 4.48999977 -7.00428581
v 10.2539997 4.48999977 -4.42428589
v 10.2539997 1.91000009 -4.42428589
v 10.2539997 1.91000009 -7.00428581
v 10.2539997 4.48999977 -4.14714289
v 10.2539997 4.48999977 -1.56714296
v 10.2539997 1.91000009 -1.56714296
v 10.2539997 1.91000009 -4.14714289
v 10.2539997 3.27999997 -0.899999976
v 10.2539997 3.27999997 0.899999976
v 10.2539997 -0.0199999809 0.899999976
v 10.2539997 -0.0199999809 -0.899999976
v 7.28142834 1.91000009 10.2539997
v 9.86142826 1.91000009 10.2539997
v 9.86142826 4.48999977 10.2539997
v 7.28142834 4.48999977 10.2539997
v -7.00428581 1.91000009 10.2539997
v -4.42428589 1.91000009 10.2539997
v -4.42428589 4.48999977 10.2539997
v -7.00428581 4.48999977 10.2539997
v -10.2539997 -0.0199999809 -7.6714282
v -10.2539997 3.27999997 -7.6714282
v -10.2539997 3.27999997 -9.47142792
v -10.2539997 -0.0199999809 -9.47142792
v 9.85000038 -0.0199999809 0.899999976
v 9.85000038 -0.0199999809 -0.899999976
v -9.85000038 -0.0199999809 -7.6714282
v -9.85000038 -0.0199999809 -9.47142792
g walls
f 1 8 7 6 5 4 3 2
f 2 3 10 9
f 9 10 12 11
f 11 12 14 13
f 13 14 16 15
f 15 16 18 17
f 17 18 20 19
f 4 22 21 3
f 3 21 23 10
f 10 23 24 12
f 12 24 25 14
f 14 25 26 16
f 16 26 27 18
f 18 27 28 20
f 22 30 29 21
f 21 29 31 23
f 23 31 32 24
f 24 32 33 25
f 27 35 34 28
f 30 37 36 29
f 29 36 38 31
f 31 38 39 32
f 32 39 40 33
f 41 46 45 44 43 34 35 42
f 37 48 47 36
f 36 47 49 38
f 38 49 50 39
f 39 50 51 40
f 42 53 52 41
f 48 55 54 47
f 47 54 56 49
f 49 56 57 50
f 50 57 58 51
f 51 58 60 59
f 59 60 61 53
f 53 61 62 52
f 55 64 63 54
f 54 63 65 56
f 56 65 66 57
f 57 66 67 58
f 58 67 68 60
f 60 68 69 61
f 61 69 70 62
f 1 2 72 71
f 9 11 74 73
f 11 13 75 74
f 13 15 76 75
f 15 17 77 76
f 17 19 78 77
f 41 52 80 79
f 52 62 81 80
f 62 70 82 81
f 69 68 84 83
f 68 67 85 84
f 67 66 86 85
f 66 65 87 86
f 63 64 89 88
f 64 55 90 89
f 55 48 91 90
f 48 37 92 91
f 37 30 93 92
f 30 22 94 93
f 22 4 95 94
f 26 25 97 96
f 25 33 98 97
f 33 40 99 98
f 40 51 100 99
f 51 59 101 100
f 59 53 102 101
f 53 42 103 102
f 42 35 104 103
f 35 27 105 104
f 27 26 96 105
f 106 109 108 107
f 109 111 110 108
f 111 113 112 110
f 113 115 114 112
f 115 117 116 114
f 117 119 118 116
f 119 121 120 118
f 107 108 123 122
f 108 110 124 123
f 110 112 125 124
f 112 114 126 125
f 114 116 127 126
f 116 118 128 127
f 118 120 129 128
f 122 123 131 130
f 123 124 132 131
f 124 125 133 132
f 125 126 134 133
f 128 129 136 135
f 130 131 138 137
f 131 132 139 138
f 132 133 140 139
f 133 134 141 140
f 135 136 143 142
f 137 138 145 144
f 138 139 146 145
f 139 140 147 146
f 140 141 148 147
f 142 143 150 149
f 144 145 152 151
f 145 146 153 152
f 146 147 154 153
f 147 148 155 154
f 148 157 156 155
f 157 149 158 156
f 149 150 159 158
f 151 152 161 160
f 152 153 162 161
f 153 154 163 162
f 154 155 164 163
f 155 156 165 164
f 156 158 166 165
f 158 159 167 166
f 106 169 168 109
f 111 171 170 113
f 113 170 172 115
f 115 172 173 117
f 117 173 174 119
f 119 174 175 121
f 143 177 176 150
f 150 176 178 159
f 159 178 179 167
f 166 181 180 165
f 165 180 182 164
f 164 182 183 163
f 163 183 184 162
f 161 186 185 160
f 160 185 187 151
f 151 187 188 144
f 144 188 189 137
f 137 189 190 130
f 130 190 191 122
f 122 191 192 107
f 127 194 193 126
f 126 193 195 134
f 134 195 196 141
f 141 196 197 148
f 148 197 198 157
f 157 198 199 149
f 149 199 200 142
f 142 200 201 135
f 135 201 202 128
f 128 202 194 127
f 72 168 169 71
f 71 169 192 95
f 95 192 191 94
f 94 191 190 93
f 93 190 189 92
f 92 189 188 91
f 91 188 187 90
f 90 187 185 89
f 89 185 186 88
f 88 186 184 87
f 87 184 183 86
f 86 183 182 85
f 85 182 180 84
f 84 180 181 83
f 83 181 179 82
f 82 179 178 81
f 81 178 176 80
f 80 176 177 79
f 79 177 204 203
f 203 204 206 205
f 205 206 208 207
f 207 208 175 78
f 78 175 174 77
f 77 174 173 76
f 76 173 172 75
f 75 172 170 74
f 74 170 171 73
f 73 171 168 72
f 97 193 194 96
f 96 194 202 105
f 105 202 201 104
f 104 201 200 103
f 103 200 199 102
f 102 199 198 101
f 101 198 197 100
f 100 197 196 99
f 99 196 195 98
f 98 195 193 97
f 209 212 72 2 9 73 72 212 211 210
f 213 216 207 78 19 20 207 216 215 214
f 217 220 219 218 217 207 20 28 205 207
f 221 224 203 205 28 34 203 224 223 222
f 225 226 46 41 79 203 34 43
f 227 230 83 82 70 69 83 230 229 228
f 231 234 88 87 65 63 88 234 233 232
f 235 236 8 1 71 95 4 5
f 111 109 168 237 240 239 238 237 168 171
f 241 244 208 120 121 175 208 244 243 242
f 206 129 120 208 245 248 247 246 245 208
f 204 136 129 206 249 252 251 250 249 206
f 253 256 136 204 177 143 136 256 255 254
f 257 260 181 166 167 179 181 260 259 258
f 261 264 186 161 162 184 186 264 263 262
f 106 107 265 268 267 266 265 107 192 169
f 216 213 243 244
f 242 214 215 241
f 215 216 244 241
f 213 214 242 243
f 220 217 245 246
f 248 218 219 247
f 219 220 246 247
f 217 218 248 245
f 224 221 249 250
f 252 222 223 251
f 223 224 250 251
f 221 222 252 249
f 230 227 259 260
f 258 228 229 257
f 257 229 230 260
f 258 259 227 228
f 234 231 263 264
f 262 232 233 261
f 261 233 234 264
f 262 263 231 232
f 211 212 237 238
f 240 209 210 239
f 210 211 238 239
f 212 209 240 237
f 269 270 44 45
f 226 225 253 254
f 255 256 270 269
f 46 226 254 255 269 45
f 225 43 44 270 256 253
f 6 7 272 271
f 266 267 236 235
f 268 265 271 272
f 272 7 8 236 267 268
f 265 266 235 5 6 271
