%YAML 1.1
%TAG !u! tag:unity3d.com,2011:
--- !u!1045 &1
EditorBuildSettings:
  m_ObjectHideFlags: 0
  serializedVersion: 2
  m_Scenes:
  - enabled: 1
    path: Assets/Scenes/Login.unity
    guid: c154746d4d6f86245af2bc3f97c7c807
  - enabled: 1
    path: Assets/Scenes/SettingsScene.unity
    guid: 83a08bf502da963479c5152b294d46ca
  - enabled: 1
    path: Assets/Scenes/Room.unity
    guid: 9fc0d4010bbf28b4594072e72b8655ab
  - enabled: 1
    path: Assets/Scenes/Quiz.unity
    guid: 2d494093e7bf2544986b748bff92d4a3
  - enabled: 1
    path: Assets/Scenes/QuizGame.unity
    guid: da692b6ef475215468e2cab315235ba6
  - enabled: 1
    path: Assets/Scenes/Puzzle.unity
    guid: df47a24f3e28ab040afeca96c4f52b38
  - enabled: 1
    path: Assets/Scenes/PDFViewer.unity
    guid: 4f4a923385356ae42af80130f936f65a
  - enabled: 1
    path: Assets/Scenes/LabelGame.unity
    guid: 2cf3ca3f8a2802347937f066ec854d5d
  - enabled: 1
    path: Assets/Scenes/Survey.unity
    guid: 9c778ed1e6be2944784deb492a8ed9ba
  - enabled: 1
    path: Assets/Scenes/URL.unity
    guid: 44134889c1f7c3949a4835ba98b455b6
  m_configObjects:
    com.unity.addressableassets: {fileID: 11400000, guid: 1c69d45a0e32fd9418085ac5465cdfe5, type: 2}
